0,0.0730140209197998
1,0.05281496047973633
2,0.058027029037475586
3,0.057663917541503906
4,0.05409502983093262
5,0.8831009864807129
6,0.05917501449584961
7,0.0579218864440918
8,0.8842689990997314
9,0.057981014251708984
10,0.9806079864501953
11,0.05328702926635742
12,0.05791592597961426
13,0.852863073348999
14,0.05796194076538086
15,0.93784499168396
16,0.058283090591430664
17,0.05306291580200195
18,0.8941290378570557
19,0.06008410453796387
20,0.9425029754638672
21,0.06275701522827148
22,0.0589909553527832
23,0.8811180591583252
24,0.06303215026855469
25,0.9335830211639404
26,0.06591200828552246
27,0.06657981872558594
28,0.860144853591919
29,0.05739402770996094
30,0.9433529376983643
31,0.05775594711303711
32,0.05275392532348633
33,0.9017870426177979
34,0.06114697456359863
35,0.9355099201202393
36,0.06082606315612793
37,0.06775617599487305
38,0.8627760410308838
39,0.05773305892944336
40,0.9407141208648682
41,0.0531458854675293
42,0.0640101432800293
43,0.8933799266815186
44,0.05790996551513672
45,0.9315500259399414
46,0.05816507339477539
47,0.05480504035949707
48,0.8944690227508545
49,0.059745073318481445
50,0.9469389915466309
51,0.06596899032592773
52,0.05830502510070801
53,0.9126439094543457
54,0.05797719955444336
55,0.8990051746368408
56,0.06414008140563965
57,0.05880093574523926
58,0.8832681179046631
59,0.059365034103393555
60,0.941490888595581
61,0.0811929702758789
62,0.08296680450439453
63,0.8230600357055664
64,0.05846095085144043
65,0.947160005569458
66,0.059454917907714844
67,0.05821800231933594
68,0.9124429225921631
69,0.06249403953552246
70,0.9070360660552979
71,0.05974602699279785
72,0.058032989501953125
73,0.8823590278625488
74,0.05875682830810547
75,0.9775829315185547
76,0.05902290344238281
77,0.05836796760559082
78,0.8429250717163086
79,0.06317520141601562
80,0.934657096862793
81,0.06541919708251953
82,0.05785679817199707
83,0.8887441158294678
84,0.05510997772216797
85,0.9321231842041016
86,0.057991981506347656
87,0.05898094177246094
88,0.8849239349365234
89,0.05840015411376953
90,0.9567959308624268
91,0.05796098709106445
92,0.06365489959716797
93,0.8820919990539551
94,0.057875871658325195
95,0.9291799068450928
96,0.05329298973083496
97,0.057267189025878906
98,0.9111721515655518
99,0.07722091674804688
AVERAGE,0.3828778600692749
TOTAL,38.28778600692749
